{
    "sourceFile": "data/userMongoRepo.js",
    "activeCommit": 0,
    "commits": [
        {
            "activePatchIndex": 5,
            "patches": [
                {
                    "date": 1624518153771,
                    "content": "Index: \n===================================================================\n--- \n+++ \n"
                },
                {
                    "date": 1624518387398,
                    "content": "Index: \n===================================================================\n--- \n+++ \n@@ -16,8 +16,15 @@\n     const dataToSave = DBUtils.changeToJson(data);\n     await dataModel.insertMany(dataToSave);\n   }\n \n+  async update(data) {\n+    const dataModel = this.getDataModelInstance(data);\n+    const dataToSave = DBUtils.changeToJson(data);\n+    const searchQuery = { uuid: data.getUuid() };\n+    await dataModel.updateOne(dataToSave, searchQuery);\n+  }\n+\n   async findOne(data) {\n     const dataModel = this.getDataModelInstance(data);\n     const searchQuery = { $or: [{ uuid: data.getUuid() }, { pseudo: data.getPseudo() }] };\n     return dataModel.findOne(searchQuery, { _id: 0, __v: 0 }).lean();\n"
                },
                {
                    "date": 1624518648081,
                    "content": "Index: \n===================================================================\n--- \n+++ \n@@ -20,9 +20,9 @@\n   async update(data) {\n     const dataModel = this.getDataModelInstance(data);\n     const dataToSave = DBUtils.changeToJson(data);\n     const searchQuery = { uuid: data.getUuid() };\n-    await dataModel.updateOne(dataToSave, searchQuery);\n+    await dataModel.updateOne(searchQuery, dataToSave);\n   }\n \n   async findOne(data) {\n     const dataModel = this.getDataModelInstance(data);\n"
                },
                {
                    "date": 1624527174566,
                    "content": "Index: \n===================================================================\n--- \n+++ \n@@ -23,8 +23,13 @@\n     const searchQuery = { uuid: data.getUuid() };\n     await dataModel.updateOne(searchQuery, dataToSave);\n   }\n \n+  async get(data) {\n+    const dataModel = this.getDataModelInstance(data);\n+    return dataModel.find({}, { _id: 0, __v: 0 }).lean();\n+  }\n+\n   async findOne(data) {\n     const dataModel = this.getDataModelInstance(data);\n     const searchQuery = { $or: [{ uuid: data.getUuid() }, { pseudo: data.getPseudo() }] };\n     return dataModel.findOne(searchQuery, { _id: 0, __v: 0 }).lean();\n"
                },
                {
                    "date": 1624527307618,
                    "content": "Index: \n===================================================================\n--- \n+++ \n@@ -25,9 +25,9 @@\n   }\n \n   async get(data) {\n     const dataModel = this.getDataModelInstance(data);\n-    return dataModel.find({}, { _id: 0, __v: 0 }).lean();\n+    return dataModel.find({}, { _id: 0, __v: 0 }).sort({ fullName: 1 }).lean();\n   }\n \n   async findOne(data) {\n     const dataModel = this.getDataModelInstance(data);\n"
                },
                {
                    "date": 1624541200290,
                    "content": "Index: \n===================================================================\n--- \n+++ \n@@ -28,8 +28,14 @@\n     const dataModel = this.getDataModelInstance(data);\n     return dataModel.find({}, { _id: 0, __v: 0 }).sort({ fullName: 1 }).lean();\n   }\n \n+  async delete(data) {\n+    const dataModel = this.getDataModelInstance(data);\n+    const searchQuery = { uuid: data.getUuid() };\n+    await dataModel.deleteOne(searchQuery, { _id: 0, __v: 0 }).lean();\n+  }\n+\n   async findOne(data) {\n     const dataModel = this.getDataModelInstance(data);\n     const searchQuery = { $or: [{ uuid: data.getUuid() }, { pseudo: data.getPseudo() }] };\n     return dataModel.findOne(searchQuery, { _id: 0, __v: 0 }).lean();\n"
                }
            ],
            "date": 1624518153771,
            "name": "Commit-0",
            "content": "const { IRepository } = require('./iRepository');\nconst { DBUtils } = require('../utils/dbUtils');\nconst { Commons } = require('../utils/commons');\n\nclass UserMongoRepo extends IRepository {\n  constructor(connection) {\n    super();\n    if (!this.connection) {\n      this.connection = connection;\n    }\n    this.dataModel = {};\n  }\n\n  async insert(data) {\n    const dataModel = this.getDataModelInstance(data);\n    const dataToSave = DBUtils.changeToJson(data);\n    await dataModel.insertMany(dataToSave);\n  }\n\n  async findOne(data) {\n    const dataModel = this.getDataModelInstance(data);\n    const searchQuery = { $or: [{ uuid: data.getUuid() }, { pseudo: data.getPseudo() }] };\n    return dataModel.findOne(searchQuery, { _id: 0, __v: 0 }).lean();\n  }\n\n  getDataModelInstance(data) {\n    const sampleData = Commons.getSingleElementFrom(data);\n    const dataName = sampleData.constructor.name;\n    if (!this.dataModel[dataName]) {\n      this.dataModel[dataName] = DBUtils.buildModelFrom(data, this.connection);\n    }\n\n    return this.dataModel[dataName];\n  }\n}\n\nexports.UserMongoRepo = UserMongoRepo;\n"
        }
    ]
}